###vap_core_1.2.0:GraphAA###
#	<243> trxFreq_16-50 : H3K36me3-vs-H3_Young_sacCer1 : AA				<956> trxFreq_2-4 : H3K36me3-vs-H3_Young_sacCer1 : AA				<1498> trxFreq_-1 : H3K36me3-vs-H3_Young_sacCer1 : AA			
#relative_coordinates	aggregate_signal_Mean	confidence_value_SEM	proportion	relative_coordinates	aggregate_signal_Mean	confidence_value_SEM	proportion	relative_coordinates	aggregate_signal_Mean	confidence_value_SEM	proportion	
#INV	#INV	#INV	#INV	#INV	#INV	#INV	#INV	#INV	#INV	#INV	#INV	
#INV	#INV	#INV	#INV	#INV	#INV	#INV	#INV	#INV	#INV	#INV	#INV	
#INV	#INV	#INV	#INV	#INV	#INV	#INV	#INV	#INV	#INV	#INV	#INV	
-1500	0.0369548	0.0238579	1	-1500	0.0360567	0.0119843	1	-1500	0.0246227	0.0100823	1	
-1450	0.0433074	0.0265933	1	-1450	0.0368917	0.0124921	1	-1450	0.0275586	0.0100898	1	
-1400	0.0458153	0.0283376	1	-1400	0.0364845	0.0121639	1	-1400	0.0274431	0.00975759	1	
-1350	0.0391297	0.0280144	1	-1350	0.0343945	0.0132674	1	-1350	0.0259108	0.00970046	1	
-1300	0.0347206	0.0297342	1	-1300	0.0327801	0.0124215	1	-1300	0.0201678	0.0108533	1	
-1250	0.0268127	0.0266237	1	-1250	0.0311384	0.0131432	1	-1250	0.0164474	0.0108478	1	
-1200	0.0290016	0.029545	1	-1200	0.0305249	0.0115422	1	-1200	0.0126154	0.0101621	1	
-1150	0.0268763	0.0243121	1	-1150	0.0265668	0.0113863	1	-1150	0.0107571	0.0094231	1	
-1100	0.0200023	0.0208884	1	-1100	0.019069	0.0117366	1	-1100	0.00475563	0.00876958	1	
-1050	0.0139448	0.0227318	1	-1050	0.0126418	0.0131064	1	-1050	-0.00174553	0.0103474	1	
-1000	0.0174148	0.0284256	1	-1000	0.00763308	0.011388	1	-1000	-0.0114364	0.0109604	1	
-950	0.016558	0.0287696	1	-950	0.00201152	0.0127885	1	-950	-0.0180125	0.0109746	1	
-900	0.0109822	0.0269226	1	-900	-0.00137919	0.0128912	1	-900	-0.0214128	0.00990396	1	
-850	0.00322928	0.0216268	1	-850	-0.0124919	0.0113329	1	-850	-0.0314943	0.00941105	1	
-800	0.00207613	0.0218016	1	-800	-0.0280915	0.0106739	1	-800	-0.0470186	0.00917304	1	
-750	-0.000974666	0.0231965	1	-750	-0.037522	0.0118097	1	-750	-0.0608848	0.0103128	1	
-700	-0.00727733	0.0265107	1	-700	-0.0455437	0.0125291	1	-700	-0.068681	0.0102122	1	
-650	-0.0161845	0.025875	1	-650	-0.0627769	0.0132503	1	-650	-0.0815743	0.0115835	1	
-600	-0.0257192	0.0291669	1	-600	-0.0872231	0.0132956	1	-600	-0.100398	0.010337	1	
-550	-0.0345034	0.018493	1	-550	-0.108812	0.010867	1	-550	-0.117755	0.00835517	1	
-500	-0.046139	0.0218462	0.868313	-500	-0.118549	0.0123981	0.930962	-500	-0.124674	0.0106428	0.909212	
-450	-0.0559096	0.0255648	0.847737	-450	-0.123727	0.0143715	0.910042	-450	-0.131387	0.0121597	0.873832	
-400	-0.0651019	0.0284792	0.8107	-400	-0.131304	0.0134262	0.843096	-400	-0.136656	0.0120679	0.786382	
-350	-0.072489	0.0314073	0.654321	-350	-0.144226	0.0128978	0.598326	-350	-0.149344	0.0116854	0.571429	
-300	-0.0808502	0.029799	0.522634	-300	-0.146823	0.0162901	0.438285	-300	-0.151337	0.0136009	0.41522	
#INV	#INV	#INV	#INV	#INV	#INV	#INV	#INV	#INV	#INV	#INV	#INV	
#INV	#INV	#INV	#INV	#INV	#INV	#INV	#INV	#INV	#INV	#INV	#INV	
#INV	#INV	#INV	#INV	#INV	#INV	#INV	#INV	#INV	#INV	#INV	#INV	
-250	-0.0629103	0.0231595	0.522634	-250	-0.178122	0.0151605	0.438285	-250	-0.208938	0.0131265	0.414553	
-200	-0.0563435	0.0246366	0.658436	-200	-0.177442	0.0126994	0.59728	-200	-0.207138	0.0116859	0.570761	
-150	-0.0411975	0.0213905	0.8107	-150	-0.167361	0.0123035	0.84205	-150	-0.193378	0.0120574	0.786382	
-100	-0.0330092	0.0291841	0.847737	-100	-0.169405	0.0130716	0.910042	-100	-0.198204	0.0115099	0.874499	
-50	-0.0153665	0.0256901	0.868313	-50	-0.173067	0.01184	0.932008	-50	-0.206344	0.0105223	0.908545	
0	0.00811921	0.0205756	1	0	-0.172757	0.00989294	1	0	-0.209831	0.00835333	1	
50	0.0328292	0.0238046	1	50	-0.153926	0.0115235	1	50	-0.196148	0.0105779	1	
100	0.0579073	0.0276854	0.995885	100	-0.120089	0.0114064	1	100	-0.17053	0.0102652	0.999332	
150	0.0831637	0.0255304	0.979424	150	-0.0966638	0.0108225	0.995816	150	-0.152625	0.00997304	0.993324	
200	0.11217	0.0243273	0.901235	200	-0.0759263	0.00944071	0.932008	200	-0.151588	0.00961476	0.90988	
250	0.149305	0.0249989	0.835391	250	-0.0378441	0.0072601	0.884937	250	-0.130485	0.0076695	0.878505	
300	0.19185	0.0299572	0.781893	300	0.000853668	0.0083706	0.834728	300	-0.105878	0.00760889	0.848465	
350	0.217058	0.0371851	0.691358	350	0.0342547	0.0101487	0.782427	350	-0.0805675	0.0104283	0.799065	
400	0.227718	0.0425216	0.633745	400	0.0559792	0.0115556	0.73954	400	-0.0567284	0.00888328	0.759012	
450	0.238594	0.0507757	0.584362	450	0.076562	0.0123447	0.670502	450	-0.0399735	0.00950141	0.71028	
500	0.253248	0.0460031	0.54321	500	0.103352	0.0124773	0.604603	500	-0.0229334	0.00898988	0.662216	
550	0.258343	0.044001	0.481481	550	0.129522	0.0114919	0.549163	550	0.00458403	0.00827816	0.610147	
600	0.255389	0.0454404	0.419753	600	0.136958	0.014763	0.496862	600	0.0185884	0.00759753	0.571429	
650	0.23646	0.0564889	0.386831	650	0.142157	0.017895	0.452929	650	0.0309273	0.00987361	0.53271	
700	0.231535	0.0562127	0.345679	700	0.149991	0.0190871	0.401674	700	0.0394509	0.00995179	0.491322	
#INV	#INV	#INV	#INV	#INV	#INV	#INV	#INV	#INV	#INV	#INV	#INV	
#INV	#INV	#INV	#INV	#INV	#INV	#INV	#INV	#INV	#INV	#INV	#INV	
#INV	#INV	#INV	#INV	#INV	#INV	#INV	#INV	#INV	#INV	#INV	#INV	
750	0.25655	0.0673866	0.345679	750	0.189049	0.0198686	0.401674	750	0.0901294	0.0124501	0.491322	
800	0.256918	0.0541881	0.390947	800	0.186848	0.0187373	0.452929	800	0.0871942	0.0108946	0.534045	
850	0.259513	0.0583538	0.419753	850	0.19208	0.0151379	0.496862	850	0.0864417	0.00878862	0.571429	
900	0.265396	0.0367452	0.481481	900	0.19394	0.0150321	0.549163	900	0.084384	0.00849766	0.610147	
950	0.262117	0.0478397	0.54321	950	0.185717	0.0148422	0.604603	950	0.0762074	0.00899823	0.662216	
1000	0.260563	0.0423163	0.584362	1000	0.169862	0.0160367	0.671548	1000	0.0657045	0.0104014	0.71028	
1050	0.247581	0.0468636	0.633745	1050	0.163151	0.014328	0.73954	1050	0.0592309	0.00950859	0.759012	
1100	0.265602	0.0386307	0.687243	1100	0.165094	0.0139532	0.784519	1100	0.0559556	0.00911983	0.800401	
1150	0.26362	0.0360009	0.781893	1150	0.157599	0.0112398	0.834728	1150	0.0505877	0.00795821	0.848465	
1200	0.25926	0.0290986	0.835391	1200	0.143763	0.0105457	0.885983	1200	0.0420623	0.00636722	0.878505	
1250	0.249017	0.0379746	0.901235	1250	0.132125	0.0122314	0.9341	1250	0.0355158	0.00781398	0.910547	
1300	0.228133	0.0331596	0.979424	1300	0.116372	0.0110336	0.995816	1300	0.0273282	0.00789732	0.993324	
1350	0.211791	0.0354325	0.995885	1350	0.105878	0.0126935	1	1350	0.0190817	0.0085642	0.999332	
1400	0.207203	0.0334391	1	1400	0.0916987	0.0124549	1	1400	0.00569253	0.00925685	1	
1450	0.178584	0.0274289	1	1450	0.0645553	0.0109359	1	1450	-0.0150996	0.0073623	1	
1500	0.147575	0.0282488	0.921811	1500	0.0421972	0.0111727	0.930962	1500	-0.0310907	0.00866488	0.900534	
1550	0.106445	0.0337259	0.872428	1550	0.0217855	0.0145203	0.823222	1550	-0.0486376	0.0100269	0.79239	
1600	0.0860197	0.029739	0.72428	1600	0.00481167	0.0139748	0.608787	1600	-0.0611127	0.0117982	0.600134	
1650	0.0721377	0.0274569	0.485597	1650	-0.00907379	0.0133846	0.404812	1650	-0.0737223	0.0125822	0.396529	
1700	0.0580134	0.0364087	0.304527	1700	-0.0185556	0.0181354	0.238494	1700	-0.0842544	0.0157197	0.244993	
#INV	#INV	#INV	#INV	#INV	#INV	#INV	#INV	#INV	#INV	#INV	#INV	
#INV	#INV	#INV	#INV	#INV	#INV	#INV	#INV	#INV	#INV	#INV	#INV	
#INV	#INV	#INV	#INV	#INV	#INV	#INV	#INV	#INV	#INV	#INV	#INV	
1750	-0.0115259	0.0361691	0.308642	1750	-0.0598244	0.0192156	0.238494	1750	-0.0958135	0.0174491	0.243658	
1800	-0.0100699	0.0252952	0.485597	1800	-0.0549737	0.0140969	0.401674	1800	-0.086877	0.0138562	0.395194	
1850	-0.00361441	0.0244921	0.72428	1850	-0.0425451	0.0168241	0.608787	1850	-0.0743184	0.0134029	0.598798	
1900	0.00166413	0.0257097	0.880658	1900	-0.0381869	0.0141751	0.82113	1900	-0.0670378	0.0122436	0.793057	
1950	0.00228245	0.0270571	0.921811	1950	-0.0299171	0.0131845	0.930962	1950	-0.0546851	0.0110642	0.899866	
2000	-0.000217741	0.0215907	1	2000	-0.0214624	0.0110629	1	2000	-0.0447675	0.00892118	1	
2050	0.00394808	0.0270923	1	2050	-0.0100349	0.0135759	1	2050	-0.028657	0.010365	1	
2100	0.0002489	0.0256044	1	2100	-0.000971184	0.0137518	1	2100	-0.0133972	0.0100355	1	
2150	-0.000200728	0.0237006	1	2150	0.00547392	0.0123881	1	2150	-0.00640012	0.0104849	1	
2200	-0.00349885	0.0222676	1	2200	0.00455862	0.0124422	1	2200	-0.000854649	0.0101722	1	
2250	-0.00795889	0.0244808	1	2250	0.0117336	0.0104076	1	2250	0.0100918	0.00893715	1	
2300	0.000452857	0.0222771	1	2300	0.0185275	0.0113618	1	2300	0.0183615	0.00874667	1	
2350	0.00377899	0.029858	1	2350	0.0206406	0.0138329	1	2350	0.0247879	0.0103304	1	
2400	-2.19845e-05	0.0260416	1	2400	0.0179876	0.013785	1	2400	0.0257014	0.0105229	1	
2450	0.00436501	0.0290315	1	2450	0.0185913	0.0118492	1	2450	0.0285029	0.010364	1	
2500	0.00711299	0.0192693	1	2500	0.0228474	0.012262	1	2500	0.035345	0.0100434	1	
2550	0.0141242	0.0244471	1	2550	0.0264796	0.0120496	1	2550	0.0374067	0.00929141	1	
2600	0.0201291	0.0276437	1	2600	0.0271793	0.0114238	1	2600	0.0386606	0.00955287	1	
2650	0.0136517	0.0273414	1	2650	0.0290907	0.0131115	1	2650	0.0415435	0.0100758	1	
2700	0.0134796	0.0265706	1	2700	0.0286302	0.0135508	1	2700	0.0401799	0.010124	1	
2750	0.0122373	0.0267642	1	2750	0.0300254	0.0128592	1	2750	0.0398251	0.00990239	1	
2800	0.0129775	0.0234787	1	2800	0.0318134	0.0117846	1	2800	0.0390397	0.0103935	1	
2850	0.0131666	0.0232187	1	2850	0.0305594	0.0122745	1	2850	0.0379226	0.0099719	1	
2900	0.004869	0.0248014	1	2900	0.028948	0.0135283	1	2900	0.0371622	0.0105472	1	
2950	-0.00495109	0.0276907	1	2950	0.0254138	0.0128593	1	2950	0.0309406	0.0101227	1	
#INV	#INV	#INV	#INV	#INV	#INV	#INV	#INV	#INV	#INV	#INV	#INV	
#INV	#INV	#INV	#INV	#INV	#INV	#INV	#INV	#INV	#INV	#INV	#INV	
#INV	#INV	#INV	#INV	#INV	#INV	#INV	#INV	#INV	#INV	#INV	#INV	
